solid OpenSCAD_Model
  facet normal 1 -0 0
    outer loop
      vertex 12 2 2.5
      vertex 12 18 0
      vertex 12 18 2.5
    endloop
  endfacet
  facet normal 1 0 0
    outer loop
      vertex 12 18 0
      vertex 12 2 2.5
      vertex 12 2 0
    endloop
  endfacet
  facet normal 0.156435 0.987688 -0
    outer loop
      vertex 10.618 19.9021 0
      vertex 10 20 2.5
      vertex 10.618 19.9021 2.5
    endloop
  endfacet
  facet normal 0.156435 0.987688 0
    outer loop
      vertex 10 20 2.5
      vertex 10.618 19.9021 0
      vertex 10 20 0
    endloop
  endfacet
  facet normal -1 0 0
    outer loop
      vertex 0 2 0
      vertex 0 18 2.5
      vertex 0 18 0
    endloop
  endfacet
  facet normal -1 -0 0
    outer loop
      vertex 0 18 2.5
      vertex 0 2 0
      vertex 0 2 2.5
    endloop
  endfacet
  facet normal -0.891006 0.453991 0
    outer loop
      vertex 0.097887 18.618 0
      vertex 0.381967 19.1756 2.5
      vertex 0.381967 19.1756 0
    endloop
  endfacet
  facet normal -0.891006 0.453991 0
    outer loop
      vertex 0.381967 19.1756 2.5
      vertex 0.097887 18.618 0
      vertex 0.097887 18.618 2.5
    endloop
  endfacet
  facet normal 0.156435 -0.987688 0
    outer loop
      vertex 10 0 0
      vertex 10.618 0.097887 2.5
      vertex 10 0 2.5
    endloop
  endfacet
  facet normal 0.156435 -0.987688 0
    outer loop
      vertex 10.618 0.097887 2.5
      vertex 10 0 0
      vertex 10.618 0.097887 0
    endloop
  endfacet
  facet normal 0.987688 -0.156435 0
    outer loop
      vertex 11.9021 1.38197 2.5
      vertex 12 2 0
      vertex 12 2 2.5
    endloop
  endfacet
  facet normal 0.987688 -0.156435 0
    outer loop
      vertex 12 2 0
      vertex 11.9021 1.38197 2.5
      vertex 11.9021 1.38197 0
    endloop
  endfacet
  facet normal 0 0 -1
    outer loop
      vertex 12 2 0
      vertex 7.53713 6.11679 0
      vertex 12 18 0
    endloop
  endfacet
  facet normal 0 0 -1
    outer loop
      vertex 12 18 0
      vertex 7.80701 14.4129 0
      vertex 7.9 15 0
    endloop
  endfacet
  facet normal 0 0 -1
    outer loop
      vertex 7.53713 13.8832 0
      vertex 12 18 0
      vertex 7.53713 6.11679 0
    endloop
  endfacet
  facet normal 0 0 -1
    outer loop
      vertex 12 18 0
      vertex 7.53713 13.8832 0
      vertex 7.80701 14.4129 0
    endloop
  endfacet
  facet normal 0 0 -1
    outer loop
      vertex 7.11679 6.53713 0
      vertex 7.53713 13.8832 0
      vertex 7.53713 6.11679 0
    endloop
  endfacet
  facet normal 0 0 -1
    outer loop
      vertex 7.11679 6.53713 0
      vertex 7.11679 13.4629 0
      vertex 7.53713 13.8832 0
    endloop
  endfacet
  facet normal 0 0 -1
    outer loop
      vertex 6.58713 6.80701 0
      vertex 7.11679 13.4629 0
      vertex 7.11679 6.53713 0
    endloop
  endfacet
  facet normal 0 0 -1
    outer loop
      vertex 6.58713 6.80701 0
      vertex 6.58713 13.193 0
      vertex 7.11679 13.4629 0
    endloop
  endfacet
  facet normal 0 0 -1
    outer loop
      vertex 6 6.9 0
      vertex 6.58713 13.193 0
      vertex 6.58713 6.80701 0
    endloop
  endfacet
  facet normal 0 0 -1
    outer loop
      vertex 6 6.9 0
      vertex 6 13.1 0
      vertex 6.58713 13.193 0
    endloop
  endfacet
  facet normal 0 0 -1
    outer loop
      vertex 5.41287 6.80701 0
      vertex 6 13.1 0
      vertex 6 6.9 0
    endloop
  endfacet
  facet normal 0 0 -1
    outer loop
      vertex 5.41287 6.80701 0
      vertex 5.41287 13.193 0
      vertex 6 13.1 0
    endloop
  endfacet
  facet normal 0 0 -1
    outer loop
      vertex 4.88321 6.53713 0
      vertex 5.41287 13.193 0
      vertex 5.41287 6.80701 0
    endloop
  endfacet
  facet normal 0 0 -1
    outer loop
      vertex 4.88321 6.53713 0
      vertex 4.88321 13.4629 0
      vertex 5.41287 13.193 0
    endloop
  endfacet
  facet normal 0 0 -1
    outer loop
      vertex 4.46287 6.11679 0
      vertex 4.88321 13.4629 0
      vertex 4.88321 6.53713 0
    endloop
  endfacet
  facet normal 0 0 -1
    outer loop
      vertex 4.46287 6.11679 0
      vertex 4.46287 13.8832 0
      vertex 4.88321 13.4629 0
    endloop
  endfacet
  facet normal 0 0 -1
    outer loop
      vertex 0 2 0
      vertex 4.46287 6.11679 0
      vertex 4.19299 5.58713 0
    endloop
  endfacet
  facet normal -0 0 -1
    outer loop
      vertex 4.46287 6.11679 0
      vertex 0 2 0
      vertex 4.46287 13.8832 0
    endloop
  endfacet
  facet normal 0 0 -1
    outer loop
      vertex 0 2 0
      vertex 4.19299 5.58713 0
      vertex 4.1 5 0
    endloop
  endfacet
  facet normal 0 0 -1
    outer loop
      vertex 0 18 0
      vertex 4.46287 13.8832 0
      vertex 0 2 0
    endloop
  endfacet
  facet normal 0 0 -1
    outer loop
      vertex 10 0 0
      vertex 12 2 0
      vertex 11.9021 1.38197 0
    endloop
  endfacet
  facet normal 0 0 -1
    outer loop
      vertex 7.80701 5.58713 0
      vertex 12 2 0
      vertex 7.9 5 0
    endloop
  endfacet
  facet normal 0 0 -1
    outer loop
      vertex 10 0 0
      vertex 11.9021 1.38197 0
      vertex 11.618 0.82443 0
    endloop
  endfacet
  facet normal 0 0 -1
    outer loop
      vertex 7.53713 6.11679 0
      vertex 12 2 0
      vertex 7.80701 5.58713 0
    endloop
  endfacet
  facet normal 0 0 -1
    outer loop
      vertex 10 0 0
      vertex 11.618 0.82443 0
      vertex 11.1756 0.381967 0
    endloop
  endfacet
  facet normal 0 0 -1
    outer loop
      vertex 7.80701 15.5871 0
      vertex 12 18 0
      vertex 7.9 15 0
    endloop
  endfacet
  facet normal 0 0 -1
    outer loop
      vertex 10 0 0
      vertex 11.1756 0.381967 0
      vertex 10.618 0.097887 0
    endloop
  endfacet
  facet normal 0 0 -1
    outer loop
      vertex 7.53713 16.1168 0
      vertex 12 18 0
      vertex 7.80701 15.5871 0
    endloop
  endfacet
  facet normal -0 0 -1
    outer loop
      vertex 12 2 0
      vertex 10 0 0
      vertex 7.53713 3.88321 0
    endloop
  endfacet
  facet normal 0 -0 -1
    outer loop
      vertex 10 20 0
      vertex 12 18 0
      vertex 7.53713 16.1168 0
    endloop
  endfacet
  facet normal 0 0 -1
    outer loop
      vertex 12 18 0
      vertex 10 20 0
      vertex 11.9021 18.618 0
    endloop
  endfacet
  facet normal 0 0 -1
    outer loop
      vertex 12 2 0
      vertex 7.80701 4.41287 0
      vertex 7.9 5 0
    endloop
  endfacet
  facet normal 0 0 -1
    outer loop
      vertex 12 2 0
      vertex 7.53713 3.88321 0
      vertex 7.80701 4.41287 0
    endloop
  endfacet
  facet normal 0 0 -1
    outer loop
      vertex 10 0 0
      vertex 7.11679 3.46287 0
      vertex 7.53713 3.88321 0
    endloop
  endfacet
  facet normal 0 0 -1
    outer loop
      vertex 10 0 0
      vertex 6.58713 3.19299 0
      vertex 7.11679 3.46287 0
    endloop
  endfacet
  facet normal 0 0 -1
    outer loop
      vertex 10 0 0
      vertex 6 3.1 0
      vertex 6.58713 3.19299 0
    endloop
  endfacet
  facet normal 0 0 -1
    outer loop
      vertex 2 0 0
      vertex 6 3.1 0
      vertex 10 0 0
    endloop
  endfacet
  facet normal -0 0 -1
    outer loop
      vertex 6 3.1 0
      vertex 2 0 0
      vertex 5.41287 3.19299 0
    endloop
  endfacet
  facet normal -0 0 -1
    outer loop
      vertex 4.19299 4.41287 0
      vertex 0 2 0
      vertex 4.1 5 0
    endloop
  endfacet
  facet normal -0 0 -1
    outer loop
      vertex 4.46287 3.88321 0
      vertex 0 2 0
      vertex 4.19299 4.41287 0
    endloop
  endfacet
  facet normal 0 0 -1
    outer loop
      vertex 0 2 0
      vertex 4.46287 3.88321 0
      vertex 2 0 0
    endloop
  endfacet
  facet normal -0 0 -1
    outer loop
      vertex 4.88321 3.46287 0
      vertex 2 0 0
      vertex 4.46287 3.88321 0
    endloop
  endfacet
  facet normal -0 0 -1
    outer loop
      vertex 5.41287 3.19299 0
      vertex 2 0 0
      vertex 4.88321 3.46287 0
    endloop
  endfacet
  facet normal 0 0 -1
    outer loop
      vertex 11.9021 18.618 0
      vertex 10 20 0
      vertex 11.618 19.1756 0
    endloop
  endfacet
  facet normal 0 0 -1
    outer loop
      vertex 11.618 19.1756 0
      vertex 10 20 0
      vertex 11.1756 19.618 0
    endloop
  endfacet
  facet normal 0 0 -1
    outer loop
      vertex 11.1756 19.618 0
      vertex 10 20 0
      vertex 10.618 19.9021 0
    endloop
  endfacet
  facet normal 0 0 -1
    outer loop
      vertex 7.11679 16.5371 0
      vertex 10 20 0
      vertex 7.53713 16.1168 0
    endloop
  endfacet
  facet normal 0 0 -1
    outer loop
      vertex 6.58713 16.807 0
      vertex 10 20 0
      vertex 7.11679 16.5371 0
    endloop
  endfacet
  facet normal 0 0 -1
    outer loop
      vertex 6 16.9 0
      vertex 10 20 0
      vertex 6.58713 16.807 0
    endloop
  endfacet
  facet normal 0 0 -1
    outer loop
      vertex 2 20 0
      vertex 6 16.9 0
      vertex 5.41287 16.807 0
    endloop
  endfacet
  facet normal 0 0 -1
    outer loop
      vertex 2 20 0
      vertex 5.41287 16.807 0
      vertex 4.88321 16.5371 0
    endloop
  endfacet
  facet normal 0 0 -1
    outer loop
      vertex 6 16.9 0
      vertex 2 20 0
      vertex 10 20 0
    endloop
  endfacet
  facet normal 0 0 -1
    outer loop
      vertex 4.46287 16.1168 0
      vertex 2 20 0
      vertex 4.88321 16.5371 0
    endloop
  endfacet
  facet normal 0 0 -1
    outer loop
      vertex 0 18 0
      vertex 4.46287 16.1168 0
      vertex 4.19299 15.5871 0
    endloop
  endfacet
  facet normal 0 0 -1
    outer loop
      vertex 0 18 0
      vertex 4.19299 15.5871 0
      vertex 4.1 15 0
    endloop
  endfacet
  facet normal 0 0 -1
    outer loop
      vertex 4.46287 13.8832 0
      vertex 0 18 0
      vertex 4.19299 14.4129 0
    endloop
  endfacet
  facet normal 0 0 -1
    outer loop
      vertex 0 2 0
      vertex 2 0 0
      vertex 1.38197 0.097887 0
    endloop
  endfacet
  facet normal 0 0 -1
    outer loop
      vertex 4.19299 14.4129 0
      vertex 0 18 0
      vertex 4.1 15 0
    endloop
  endfacet
  facet normal 0 0 -1
    outer loop
      vertex 0 2 0
      vertex 1.38197 0.097887 0
      vertex 0.82443 0.381967 0
    endloop
  endfacet
  facet normal 0 0 -1
    outer loop
      vertex 4.46287 16.1168 0
      vertex 0 18 0
      vertex 2 20 0
    endloop
  endfacet
  facet normal 0 0 -1
    outer loop
      vertex 0 2 0
      vertex 0.82443 0.381967 0
      vertex 0.381967 0.82443 0
    endloop
  endfacet
  facet normal 0 0 -1
    outer loop
      vertex 2 20 0
      vertex 0 18 0
      vertex 1.38197 19.9021 0
    endloop
  endfacet
  facet normal 0 0 -1
    outer loop
      vertex 0 2 0
      vertex 0.381967 0.82443 0
      vertex 0.097887 1.38197 0
    endloop
  endfacet
  facet normal 0 0 -1
    outer loop
      vertex 1.38197 19.9021 0
      vertex 0 18 0
      vertex 0.82443 19.618 0
    endloop
  endfacet
  facet normal 0 0 -1
    outer loop
      vertex 0.82443 19.618 0
      vertex 0 18 0
      vertex 0.381967 19.1756 0
    endloop
  endfacet
  facet normal 0 0 -1
    outer loop
      vertex 0.381967 19.1756 0
      vertex 0 18 0
      vertex 0.097887 18.618 0
    endloop
  endfacet
  facet normal 0.891006 0.453991 0
    outer loop
      vertex 11.9021 18.618 2.5
      vertex 11.618 19.1756 0
      vertex 11.618 19.1756 2.5
    endloop
  endfacet
  facet normal 0.891006 0.453991 0
    outer loop
      vertex 11.618 19.1756 0
      vertex 11.9021 18.618 2.5
      vertex 11.9021 18.618 0
    endloop
  endfacet
  facet normal 0.987688 0.156434 0
    outer loop
      vertex 12 18 2.5
      vertex 11.9021 18.618 0
      vertex 11.9021 18.618 2.5
    endloop
  endfacet
  facet normal 0.987688 0.156434 0
    outer loop
      vertex 11.9021 18.618 0
      vertex 12 18 2.5
      vertex 12 18 0
    endloop
  endfacet
  facet normal 0.891006 -0.453991 0
    outer loop
      vertex 11.618 0.82443 2.5
      vertex 11.9021 1.38197 0
      vertex 11.9021 1.38197 2.5
    endloop
  endfacet
  facet normal 0.891006 -0.453991 0
    outer loop
      vertex 11.9021 1.38197 0
      vertex 11.618 0.82443 2.5
      vertex 11.618 0.82443 0
    endloop
  endfacet
  facet normal -0.707107 0.707107 0
    outer loop
      vertex 0.381967 19.1756 0
      vertex 0.82443 19.618 2.5
      vertex 0.82443 19.618 0
    endloop
  endfacet
  facet normal -0.707107 0.707107 0
    outer loop
      vertex 0.82443 19.618 2.5
      vertex 0.381967 19.1756 0
      vertex 0.381967 19.1756 2.5
    endloop
  endfacet
  facet normal -0.987688 0.156434 0
    outer loop
      vertex 0 18 0
      vertex 0.097887 18.618 2.5
      vertex 0.097887 18.618 0
    endloop
  endfacet
  facet normal -0.987688 0.156434 0
    outer loop
      vertex 0.097887 18.618 2.5
      vertex 0 18 0
      vertex 0 18 2.5
    endloop
  endfacet
  facet normal 0 0 1
    outer loop
      vertex 12 18 2.5
      vertex 7.53713 13.8832 2.5
      vertex 12 2 2.5
    endloop
  endfacet
  facet normal 0 0 1
    outer loop
      vertex 12 2 2.5
      vertex 7.80701 5.58713 2.5
      vertex 7.9 5 2.5
    endloop
  endfacet
  facet normal -0 0 1
    outer loop
      vertex 7.53713 6.11679 2.5
      vertex 12 2 2.5
      vertex 7.53713 13.8832 2.5
    endloop
  endfacet
  facet normal 0 0 1
    outer loop
      vertex 12 2 2.5
      vertex 7.53713 6.11679 2.5
      vertex 7.80701 5.58713 2.5
    endloop
  endfacet
  facet normal -0 0 1
    outer loop
      vertex 7.11679 13.4629 2.5
      vertex 7.53713 6.11679 2.5
      vertex 7.53713 13.8832 2.5
    endloop
  endfacet
  facet normal 0 0 1
    outer loop
      vertex 7.11679 13.4629 2.5
      vertex 7.11679 6.53713 2.5
      vertex 7.53713 6.11679 2.5
    endloop
  endfacet
  facet normal -0 0 1
    outer loop
      vertex 6.58713 13.193 2.5
      vertex 7.11679 6.53713 2.5
      vertex 7.11679 13.4629 2.5
    endloop
  endfacet
  facet normal 0 0 1
    outer loop
      vertex 6.58713 13.193 2.5
      vertex 6.58713 6.80701 2.5
      vertex 7.11679 6.53713 2.5
    endloop
  endfacet
  facet normal -0 0 1
    outer loop
      vertex 6 13.1 2.5
      vertex 6.58713 6.80701 2.5
      vertex 6.58713 13.193 2.5
    endloop
  endfacet
  facet normal 0 0 1
    outer loop
      vertex 6 13.1 2.5
      vertex 6 6.9 2.5
      vertex 6.58713 6.80701 2.5
    endloop
  endfacet
  facet normal 0 0 1
    outer loop
      vertex 5.41287 13.193 2.5
      vertex 6 6.9 2.5
      vertex 6 13.1 2.5
    endloop
  endfacet
  facet normal 0 0 1
    outer loop
      vertex 5.41287 13.193 2.5
      vertex 5.41287 6.80701 2.5
      vertex 6 6.9 2.5
    endloop
  endfacet
  facet normal 0 0 1
    outer loop
      vertex 4.88321 13.4629 2.5
      vertex 5.41287 6.80701 2.5
      vertex 5.41287 13.193 2.5
    endloop
  endfacet
  facet normal 0 0 1
    outer loop
      vertex 4.88321 13.4629 2.5
      vertex 4.88321 6.53713 2.5
      vertex 5.41287 6.80701 2.5
    endloop
  endfacet
  facet normal 0 0 1
    outer loop
      vertex 4.46287 13.8832 2.5
      vertex 4.88321 6.53713 2.5
      vertex 4.88321 13.4629 2.5
    endloop
  endfacet
  facet normal 0 0 1
    outer loop
      vertex 4.46287 13.8832 2.5
      vertex 4.46287 6.11679 2.5
      vertex 4.88321 6.53713 2.5
    endloop
  endfacet
  facet normal 0 0 1
    outer loop
      vertex 0 18 2.5
      vertex 4.46287 13.8832 2.5
      vertex 4.19299 14.4129 2.5
    endloop
  endfacet
  facet normal 0 0 1
    outer loop
      vertex 4.46287 13.8832 2.5
      vertex 0 18 2.5
      vertex 4.46287 6.11679 2.5
    endloop
  endfacet
  facet normal 0 0 1
    outer loop
      vertex 0 18 2.5
      vertex 4.19299 14.4129 2.5
      vertex 4.1 15 2.5
    endloop
  endfacet
  facet normal 0 0 1
    outer loop
      vertex 0 2 2.5
      vertex 4.46287 6.11679 2.5
      vertex 0 18 2.5
    endloop
  endfacet
  facet normal 0 0 1
    outer loop
      vertex 10 20 2.5
      vertex 12 18 2.5
      vertex 11.9021 18.618 2.5
    endloop
  endfacet
  facet normal 0 0 1
    outer loop
      vertex 7.80701 14.4129 2.5
      vertex 12 18 2.5
      vertex 7.9 15 2.5
    endloop
  endfacet
  facet normal 0 0 1
    outer loop
      vertex 10 20 2.5
      vertex 11.9021 18.618 2.5
      vertex 11.618 19.1756 2.5
    endloop
  endfacet
  facet normal 0 0 1
    outer loop
      vertex 7.53713 13.8832 2.5
      vertex 12 18 2.5
      vertex 7.80701 14.4129 2.5
    endloop
  endfacet
  facet normal 0 0 1
    outer loop
      vertex 10 20 2.5
      vertex 11.618 19.1756 2.5
      vertex 11.1756 19.618 2.5
    endloop
  endfacet
  facet normal -0 0 1
    outer loop
      vertex 7.80701 4.41287 2.5
      vertex 12 2 2.5
      vertex 7.9 5 2.5
    endloop
  endfacet
  facet normal 0 0 1
    outer loop
      vertex 10 20 2.5
      vertex 11.1756 19.618 2.5
      vertex 10.618 19.9021 2.5
    endloop
  endfacet
  facet normal -0 0 1
    outer loop
      vertex 7.53713 3.88321 2.5
      vertex 12 2 2.5
      vertex 7.80701 4.41287 2.5
    endloop
  endfacet
  facet normal 0 0 1
    outer loop
      vertex 12 18 2.5
      vertex 10 20 2.5
      vertex 7.53713 16.1168 2.5
    endloop
  endfacet
  facet normal 0 -0 1
    outer loop
      vertex 10 0 2.5
      vertex 12 2 2.5
      vertex 7.53713 3.88321 2.5
    endloop
  endfacet
  facet normal 0 0 1
    outer loop
      vertex 12 2 2.5
      vertex 10 0 2.5
      vertex 11.9021 1.38197 2.5
    endloop
  endfacet
  facet normal 0 0 1
    outer loop
      vertex 12 18 2.5
      vertex 7.80701 15.5871 2.5
      vertex 7.9 15 2.5
    endloop
  endfacet
  facet normal 0 0 1
    outer loop
      vertex 12 18 2.5
      vertex 7.53713 16.1168 2.5
      vertex 7.80701 15.5871 2.5
    endloop
  endfacet
  facet normal 0 0 1
    outer loop
      vertex 10 20 2.5
      vertex 7.11679 16.5371 2.5
      vertex 7.53713 16.1168 2.5
    endloop
  endfacet
  facet normal 0 0 1
    outer loop
      vertex 10 20 2.5
      vertex 6.58713 16.807 2.5
      vertex 7.11679 16.5371 2.5
    endloop
  endfacet
  facet normal 0 0 1
    outer loop
      vertex 10 20 2.5
      vertex 6 16.9 2.5
      vertex 6.58713 16.807 2.5
    endloop
  endfacet
  facet normal -0 0 1
    outer loop
      vertex 2 20 2.5
      vertex 6 16.9 2.5
      vertex 10 20 2.5
    endloop
  endfacet
  facet normal 0 0 1
    outer loop
      vertex 6 16.9 2.5
      vertex 2 20 2.5
      vertex 5.41287 16.807 2.5
    endloop
  endfacet
  facet normal 0 0 1
    outer loop
      vertex 4.19299 15.5871 2.5
      vertex 0 18 2.5
      vertex 4.1 15 2.5
    endloop
  endfacet
  facet normal 0 0 1
    outer loop
      vertex 4.46287 16.1168 2.5
      vertex 0 18 2.5
      vertex 4.19299 15.5871 2.5
    endloop
  endfacet
  facet normal -0 0 1
    outer loop
      vertex 0 18 2.5
      vertex 4.46287 16.1168 2.5
      vertex 2 20 2.5
    endloop
  endfacet
  facet normal 0 0 1
    outer loop
      vertex 4.88321 16.5371 2.5
      vertex 2 20 2.5
      vertex 4.46287 16.1168 2.5
    endloop
  endfacet
  facet normal 0 0 1
    outer loop
      vertex 5.41287 16.807 2.5
      vertex 2 20 2.5
      vertex 4.88321 16.5371 2.5
    endloop
  endfacet
  facet normal 0 0 1
    outer loop
      vertex 11.9021 1.38197 2.5
      vertex 10 0 2.5
      vertex 11.618 0.82443 2.5
    endloop
  endfacet
  facet normal 0 0 1
    outer loop
      vertex 11.618 0.82443 2.5
      vertex 10 0 2.5
      vertex 11.1756 0.381967 2.5
    endloop
  endfacet
  facet normal 0 0 1
    outer loop
      vertex 11.1756 0.381967 2.5
      vertex 10 0 2.5
      vertex 10.618 0.097887 2.5
    endloop
  endfacet
  facet normal -0 0 1
    outer loop
      vertex 7.11679 3.46287 2.5
      vertex 10 0 2.5
      vertex 7.53713 3.88321 2.5
    endloop
  endfacet
  facet normal -0 0 1
    outer loop
      vertex 6.58713 3.19299 2.5
      vertex 10 0 2.5
      vertex 7.11679 3.46287 2.5
    endloop
  endfacet
  facet normal -0 0 1
    outer loop
      vertex 6 3.1 2.5
      vertex 10 0 2.5
      vertex 6.58713 3.19299 2.5
    endloop
  endfacet
  facet normal 0 0 1
    outer loop
      vertex 2 0 2.5
      vertex 6 3.1 2.5
      vertex 5.41287 3.19299 2.5
    endloop
  endfacet
  facet normal 0 0 1
    outer loop
      vertex 2 0 2.5
      vertex 5.41287 3.19299 2.5
      vertex 4.88321 3.46287 2.5
    endloop
  endfacet
  facet normal 0 0 1
    outer loop
      vertex 6 3.1 2.5
      vertex 2 0 2.5
      vertex 10 0 2.5
    endloop
  endfacet
  facet normal 0 0 1
    outer loop
      vertex 4.46287 3.88321 2.5
      vertex 2 0 2.5
      vertex 4.88321 3.46287 2.5
    endloop
  endfacet
  facet normal 0 0 1
    outer loop
      vertex 0 2 2.5
      vertex 4.46287 3.88321 2.5
      vertex 4.19299 4.41287 2.5
    endloop
  endfacet
  facet normal 0 0 1
    outer loop
      vertex 0 2 2.5
      vertex 4.19299 4.41287 2.5
      vertex 4.1 5 2.5
    endloop
  endfacet
  facet normal 0 0 1
    outer loop
      vertex 4.46287 6.11679 2.5
      vertex 0 2 2.5
      vertex 4.19299 5.58713 2.5
    endloop
  endfacet
  facet normal 0 0 1
    outer loop
      vertex 0 18 2.5
      vertex 2 20 2.5
      vertex 1.38197 19.9021 2.5
    endloop
  endfacet
  facet normal 0 0 1
    outer loop
      vertex 4.19299 5.58713 2.5
      vertex 0 2 2.5
      vertex 4.1 5 2.5
    endloop
  endfacet
  facet normal 0 0 1
    outer loop
      vertex 0 18 2.5
      vertex 1.38197 19.9021 2.5
      vertex 0.82443 19.618 2.5
    endloop
  endfacet
  facet normal 0 0 1
    outer loop
      vertex 4.46287 3.88321 2.5
      vertex 0 2 2.5
      vertex 2 0 2.5
    endloop
  endfacet
  facet normal 0 0 1
    outer loop
      vertex 0 18 2.5
      vertex 0.82443 19.618 2.5
      vertex 0.381967 19.1756 2.5
    endloop
  endfacet
  facet normal 0 0 1
    outer loop
      vertex 2 0 2.5
      vertex 0 2 2.5
      vertex 1.38197 0.097887 2.5
    endloop
  endfacet
  facet normal 0 0 1
    outer loop
      vertex 0 18 2.5
      vertex 0.381967 19.1756 2.5
      vertex 0.097887 18.618 2.5
    endloop
  endfacet
  facet normal 0 0 1
    outer loop
      vertex 1.38197 0.097887 2.5
      vertex 0 2 2.5
      vertex 0.82443 0.381967 2.5
    endloop
  endfacet
  facet normal 0 0 1
    outer loop
      vertex 0.82443 0.381967 2.5
      vertex 0 2 2.5
      vertex 0.381967 0.82443 2.5
    endloop
  endfacet
  facet normal 0 0 1
    outer loop
      vertex 0.381967 0.82443 2.5
      vertex 0 2 2.5
      vertex 0.097887 1.38197 2.5
    endloop
  endfacet
  facet normal 0.707107 -0.707107 0
    outer loop
      vertex 11.1756 0.381967 2.5
      vertex 11.618 0.82443 0
      vertex 11.618 0.82443 2.5
    endloop
  endfacet
  facet normal 0.707107 -0.707107 0
    outer loop
      vertex 11.618 0.82443 0
      vertex 11.1756 0.381967 2.5
      vertex 11.1756 0.381967 0
    endloop
  endfacet
  facet normal 0.453991 -0.891006 0
    outer loop
      vertex 10.618 0.097887 0
      vertex 11.1756 0.381967 2.5
      vertex 10.618 0.097887 2.5
    endloop
  endfacet
  facet normal 0.453991 -0.891006 0
    outer loop
      vertex 11.1756 0.381967 2.5
      vertex 10.618 0.097887 0
      vertex 11.1756 0.381967 0
    endloop
  endfacet
  facet normal 0.45399 0.891007 -0
    outer loop
      vertex 11.1756 19.618 0
      vertex 10.618 19.9021 2.5
      vertex 11.1756 19.618 2.5
    endloop
  endfacet
  facet normal 0.45399 0.891007 0
    outer loop
      vertex 10.618 19.9021 2.5
      vertex 11.1756 19.618 0
      vertex 10.618 19.9021 0
    endloop
  endfacet
  facet normal 0.707107 0.707107 0
    outer loop
      vertex 11.618 19.1756 2.5
      vertex 11.1756 19.618 0
      vertex 11.1756 19.618 2.5
    endloop
  endfacet
  facet normal 0.707107 0.707107 0
    outer loop
      vertex 11.1756 19.618 0
      vertex 11.618 19.1756 2.5
      vertex 11.618 19.1756 0
    endloop
  endfacet
  facet normal 0 1 -0
    outer loop
      vertex 10 20 0
      vertex 2 20 2.5
      vertex 10 20 2.5
    endloop
  endfacet
  facet normal 0 1 0
    outer loop
      vertex 2 20 2.5
      vertex 10 20 0
      vertex 2 20 0
    endloop
  endfacet
  facet normal 0 -1 0
    outer loop
      vertex 2 0 0
      vertex 10 0 2.5
      vertex 2 0 2.5
    endloop
  endfacet
  facet normal 0 -1 -0
    outer loop
      vertex 10 0 2.5
      vertex 2 0 0
      vertex 10 0 0
    endloop
  endfacet
  facet normal -0.707107 -0.707107 0
    outer loop
      vertex 0.82443 0.381967 0
      vertex 0.381967 0.82443 2.5
      vertex 0.381967 0.82443 0
    endloop
  endfacet
  facet normal -0.707107 -0.707107 0
    outer loop
      vertex 0.381967 0.82443 2.5
      vertex 0.82443 0.381967 0
      vertex 0.82443 0.381967 2.5
    endloop
  endfacet
  facet normal -0.156435 0.987688 0
    outer loop
      vertex 2 20 0
      vertex 1.38197 19.9021 2.5
      vertex 2 20 2.5
    endloop
  endfacet
  facet normal -0.156435 0.987688 0
    outer loop
      vertex 1.38197 19.9021 2.5
      vertex 2 20 0
      vertex 1.38197 19.9021 0
    endloop
  endfacet
  facet normal -0.156435 -0.987688 0
    outer loop
      vertex 1.38197 0.097887 0
      vertex 2 0 2.5
      vertex 1.38197 0.097887 2.5
    endloop
  endfacet
  facet normal -0.156435 -0.987688 -0
    outer loop
      vertex 2 0 2.5
      vertex 1.38197 0.097887 0
      vertex 2 0 0
    endloop
  endfacet
  facet normal -0.891006 -0.453991 0
    outer loop
      vertex 0.381967 0.82443 0
      vertex 0.097887 1.38197 2.5
      vertex 0.097887 1.38197 0
    endloop
  endfacet
  facet normal -0.891006 -0.453991 0
    outer loop
      vertex 0.097887 1.38197 2.5
      vertex 0.381967 0.82443 0
      vertex 0.381967 0.82443 2.5
    endloop
  endfacet
  facet normal -0.987688 -0.156435 0
    outer loop
      vertex 0.097887 1.38197 0
      vertex 0 2 2.5
      vertex 0 2 0
    endloop
  endfacet
  facet normal -0.987688 -0.156435 0
    outer loop
      vertex 0 2 2.5
      vertex 0.097887 1.38197 0
      vertex 0.097887 1.38197 2.5
    endloop
  endfacet
  facet normal -0.45399 0.891007 0
    outer loop
      vertex 1.38197 19.9021 0
      vertex 0.82443 19.618 2.5
      vertex 1.38197 19.9021 2.5
    endloop
  endfacet
  facet normal -0.45399 0.891007 0
    outer loop
      vertex 0.82443 19.618 2.5
      vertex 1.38197 19.9021 0
      vertex 0.82443 19.618 0
    endloop
  endfacet
  facet normal -0.453991 -0.891006 0
    outer loop
      vertex 0.82443 0.381967 0
      vertex 1.38197 0.097887 2.5
      vertex 0.82443 0.381967 2.5
    endloop
  endfacet
  facet normal -0.453991 -0.891006 -0
    outer loop
      vertex 1.38197 0.097887 2.5
      vertex 0.82443 0.381967 0
      vertex 1.38197 0.097887 0
    endloop
  endfacet
  facet normal -0.987688 -0.156435 0
    outer loop
      vertex 7.9 5 0
      vertex 7.80701 5.58713 2.5
      vertex 7.80701 5.58713 0
    endloop
  endfacet
  facet normal -0.987688 -0.156435 0
    outer loop
      vertex 7.80701 5.58713 2.5
      vertex 7.9 5 0
      vertex 7.9 5 2.5
    endloop
  endfacet
  facet normal 0.156435 -0.987688 0
    outer loop
      vertex 5.41287 6.80701 0
      vertex 6 6.9 2.5
      vertex 5.41287 6.80701 2.5
    endloop
  endfacet
  facet normal 0.156435 -0.987688 0
    outer loop
      vertex 6 6.9 2.5
      vertex 5.41287 6.80701 0
      vertex 6 6.9 0
    endloop
  endfacet
  facet normal -0.156435 0.987688 0
    outer loop
      vertex 6.58713 3.19299 0
      vertex 6 3.1 2.5
      vertex 6.58713 3.19299 2.5
    endloop
  endfacet
  facet normal -0.156435 0.987688 0
    outer loop
      vertex 6 3.1 2.5
      vertex 6.58713 3.19299 0
      vertex 6 3.1 0
    endloop
  endfacet
  facet normal -0.453989 0.891007 0
    outer loop
      vertex 7.11679 3.46287 0
      vertex 6.58713 3.19299 2.5
      vertex 7.11679 3.46287 2.5
    endloop
  endfacet
  facet normal -0.453989 0.891007 0
    outer loop
      vertex 6.58713 3.19299 2.5
      vertex 7.11679 3.46287 0
      vertex 6.58713 3.19299 0
    endloop
  endfacet
  facet normal -0.707107 -0.707107 0
    outer loop
      vertex 7.53713 6.11679 0
      vertex 7.11679 6.53713 2.5
      vertex 7.11679 6.53713 0
    endloop
  endfacet
  facet normal -0.707107 -0.707107 0
    outer loop
      vertex 7.11679 6.53713 2.5
      vertex 7.53713 6.11679 0
      vertex 7.53713 6.11679 2.5
    endloop
  endfacet
  facet normal -0.891007 -0.453989 0
    outer loop
      vertex 7.80701 5.58713 0
      vertex 7.53713 6.11679 2.5
      vertex 7.53713 6.11679 0
    endloop
  endfacet
  facet normal -0.891007 -0.453989 0
    outer loop
      vertex 7.53713 6.11679 2.5
      vertex 7.80701 5.58713 0
      vertex 7.80701 5.58713 2.5
    endloop
  endfacet
  facet normal 0.707107 -0.707107 0
    outer loop
      vertex 4.46287 6.11679 2.5
      vertex 4.88321 6.53713 0
      vertex 4.88321 6.53713 2.5
    endloop
  endfacet
  facet normal 0.707107 -0.707107 0
    outer loop
      vertex 4.88321 6.53713 0
      vertex 4.46287 6.11679 2.5
      vertex 4.46287 6.11679 0
    endloop
  endfacet
  facet normal 0.453989 -0.891007 0
    outer loop
      vertex 4.88321 6.53713 0
      vertex 5.41287 6.80701 2.5
      vertex 4.88321 6.53713 2.5
    endloop
  endfacet
  facet normal 0.453989 -0.891007 0
    outer loop
      vertex 5.41287 6.80701 2.5
      vertex 4.88321 6.53713 0
      vertex 5.41287 6.80701 0
    endloop
  endfacet
  facet normal -0.156435 -0.987688 0
    outer loop
      vertex 6 6.9 0
      vertex 6.58713 6.80701 2.5
      vertex 6 6.9 2.5
    endloop
  endfacet
  facet normal -0.156435 -0.987688 -0
    outer loop
      vertex 6.58713 6.80701 2.5
      vertex 6 6.9 0
      vertex 6.58713 6.80701 0
    endloop
  endfacet
  facet normal -0.453989 -0.891007 0
    outer loop
      vertex 6.58713 6.80701 0
      vertex 7.11679 6.53713 2.5
      vertex 6.58713 6.80701 2.5
    endloop
  endfacet
  facet normal -0.453989 -0.891007 -0
    outer loop
      vertex 7.11679 6.53713 2.5
      vertex 6.58713 6.80701 0
      vertex 7.11679 6.53713 0
    endloop
  endfacet
  facet normal 0.891007 -0.453989 0
    outer loop
      vertex 4.19299 5.58713 2.5
      vertex 4.46287 6.11679 0
      vertex 4.46287 6.11679 2.5
    endloop
  endfacet
  facet normal 0.891007 -0.453989 0
    outer loop
      vertex 4.46287 6.11679 0
      vertex 4.19299 5.58713 2.5
      vertex 4.19299 5.58713 0
    endloop
  endfacet
  facet normal 0.987688 -0.156435 0
    outer loop
      vertex 4.1 5 2.5
      vertex 4.19299 5.58713 0
      vertex 4.19299 5.58713 2.5
    endloop
  endfacet
  facet normal 0.987688 -0.156435 0
    outer loop
      vertex 4.19299 5.58713 0
      vertex 4.1 5 2.5
      vertex 4.1 5 0
    endloop
  endfacet
  facet normal 0.987688 0.156435 0
    outer loop
      vertex 4.19299 4.41287 2.5
      vertex 4.1 5 0
      vertex 4.1 5 2.5
    endloop
  endfacet
  facet normal 0.987688 0.156435 0
    outer loop
      vertex 4.1 5 0
      vertex 4.19299 4.41287 2.5
      vertex 4.19299 4.41287 0
    endloop
  endfacet
  facet normal -0.987688 0.156435 0
    outer loop
      vertex 7.80701 4.41287 0
      vertex 7.9 5 2.5
      vertex 7.9 5 0
    endloop
  endfacet
  facet normal -0.987688 0.156435 0
    outer loop
      vertex 7.9 5 2.5
      vertex 7.80701 4.41287 0
      vertex 7.80701 4.41287 2.5
    endloop
  endfacet
  facet normal -0.707107 0.707107 0
    outer loop
      vertex 7.11679 3.46287 0
      vertex 7.53713 3.88321 2.5
      vertex 7.53713 3.88321 0
    endloop
  endfacet
  facet normal -0.707107 0.707107 0
    outer loop
      vertex 7.53713 3.88321 2.5
      vertex 7.11679 3.46287 0
      vertex 7.11679 3.46287 2.5
    endloop
  endfacet
  facet normal -0.891007 0.453989 0
    outer loop
      vertex 7.53713 3.88321 0
      vertex 7.80701 4.41287 2.5
      vertex 7.80701 4.41287 0
    endloop
  endfacet
  facet normal -0.891007 0.453989 0
    outer loop
      vertex 7.80701 4.41287 2.5
      vertex 7.53713 3.88321 0
      vertex 7.53713 3.88321 2.5
    endloop
  endfacet
  facet normal 0.707107 0.707107 0
    outer loop
      vertex 4.88321 3.46287 2.5
      vertex 4.46287 3.88321 0
      vertex 4.46287 3.88321 2.5
    endloop
  endfacet
  facet normal 0.707107 0.707107 0
    outer loop
      vertex 4.46287 3.88321 0
      vertex 4.88321 3.46287 2.5
      vertex 4.88321 3.46287 0
    endloop
  endfacet
  facet normal 0.891007 0.453989 0
    outer loop
      vertex 4.46287 3.88321 2.5
      vertex 4.19299 4.41287 0
      vertex 4.19299 4.41287 2.5
    endloop
  endfacet
  facet normal 0.891007 0.453989 0
    outer loop
      vertex 4.19299 4.41287 0
      vertex 4.46287 3.88321 2.5
      vertex 4.46287 3.88321 0
    endloop
  endfacet
  facet normal 0.156435 0.987688 -0
    outer loop
      vertex 6 3.1 0
      vertex 5.41287 3.19299 2.5
      vertex 6 3.1 2.5
    endloop
  endfacet
  facet normal 0.156435 0.987688 0
    outer loop
      vertex 5.41287 3.19299 2.5
      vertex 6 3.1 0
      vertex 5.41287 3.19299 0
    endloop
  endfacet
  facet normal 0.453989 0.891007 -0
    outer loop
      vertex 5.41287 3.19299 0
      vertex 4.88321 3.46287 2.5
      vertex 5.41287 3.19299 2.5
    endloop
  endfacet
  facet normal 0.453989 0.891007 0
    outer loop
      vertex 4.88321 3.46287 2.5
      vertex 5.41287 3.19299 0
      vertex 4.88321 3.46287 0
    endloop
  endfacet
  facet normal -0.987688 -0.156435 0
    outer loop
      vertex 7.9 15 0
      vertex 7.80701 15.5871 2.5
      vertex 7.80701 15.5871 0
    endloop
  endfacet
  facet normal -0.987688 -0.156435 0
    outer loop
      vertex 7.80701 15.5871 2.5
      vertex 7.9 15 0
      vertex 7.9 15 2.5
    endloop
  endfacet
  facet normal 0.156435 -0.987688 0
    outer loop
      vertex 5.41287 16.807 0
      vertex 6 16.9 2.5
      vertex 5.41287 16.807 2.5
    endloop
  endfacet
  facet normal 0.156435 -0.987688 0
    outer loop
      vertex 6 16.9 2.5
      vertex 5.41287 16.807 0
      vertex 6 16.9 0
    endloop
  endfacet
  facet normal -0.156435 0.987688 0
    outer loop
      vertex 6.58713 13.193 0
      vertex 6 13.1 2.5
      vertex 6.58713 13.193 2.5
    endloop
  endfacet
  facet normal -0.156435 0.987688 0
    outer loop
      vertex 6 13.1 2.5
      vertex 6.58713 13.193 0
      vertex 6 13.1 0
    endloop
  endfacet
  facet normal -0.453989 0.891007 0
    outer loop
      vertex 7.11679 13.4629 0
      vertex 6.58713 13.193 2.5
      vertex 7.11679 13.4629 2.5
    endloop
  endfacet
  facet normal -0.453989 0.891007 0
    outer loop
      vertex 6.58713 13.193 2.5
      vertex 7.11679 13.4629 0
      vertex 6.58713 13.193 0
    endloop
  endfacet
  facet normal -0.707108 -0.707106 0
    outer loop
      vertex 7.53713 16.1168 0
      vertex 7.11679 16.5371 2.5
      vertex 7.11679 16.5371 0
    endloop
  endfacet
  facet normal -0.707108 -0.707106 0
    outer loop
      vertex 7.11679 16.5371 2.5
      vertex 7.53713 16.1168 0
      vertex 7.53713 16.1168 2.5
    endloop
  endfacet
  facet normal -0.891007 -0.45399 0
    outer loop
      vertex 7.80701 15.5871 0
      vertex 7.53713 16.1168 2.5
      vertex 7.53713 16.1168 0
    endloop
  endfacet
  facet normal -0.891007 -0.45399 0
    outer loop
      vertex 7.53713 16.1168 2.5
      vertex 7.80701 15.5871 0
      vertex 7.80701 15.5871 2.5
    endloop
  endfacet
  facet normal 0.707108 -0.707106 0
    outer loop
      vertex 4.46287 16.1168 2.5
      vertex 4.88321 16.5371 0
      vertex 4.88321 16.5371 2.5
    endloop
  endfacet
  facet normal 0.707108 -0.707106 0
    outer loop
      vertex 4.88321 16.5371 0
      vertex 4.46287 16.1168 2.5
      vertex 4.46287 16.1168 0
    endloop
  endfacet
  facet normal 0.453989 -0.891007 0
    outer loop
      vertex 4.88321 16.5371 0
      vertex 5.41287 16.807 2.5
      vertex 4.88321 16.5371 2.5
    endloop
  endfacet
  facet normal 0.453989 -0.891007 0
    outer loop
      vertex 5.41287 16.807 2.5
      vertex 4.88321 16.5371 0
      vertex 5.41287 16.807 0
    endloop
  endfacet
  facet normal -0.156435 -0.987688 0
    outer loop
      vertex 6 16.9 0
      vertex 6.58713 16.807 2.5
      vertex 6 16.9 2.5
    endloop
  endfacet
  facet normal -0.156435 -0.987688 -0
    outer loop
      vertex 6.58713 16.807 2.5
      vertex 6 16.9 0
      vertex 6.58713 16.807 0
    endloop
  endfacet
  facet normal -0.453989 -0.891007 0
    outer loop
      vertex 6.58713 16.807 0
      vertex 7.11679 16.5371 2.5
      vertex 6.58713 16.807 2.5
    endloop
  endfacet
  facet normal -0.453989 -0.891007 -0
    outer loop
      vertex 7.11679 16.5371 2.5
      vertex 6.58713 16.807 0
      vertex 7.11679 16.5371 0
    endloop
  endfacet
  facet normal 0.891007 -0.45399 0
    outer loop
      vertex 4.19299 15.5871 2.5
      vertex 4.46287 16.1168 0
      vertex 4.46287 16.1168 2.5
    endloop
  endfacet
  facet normal 0.891007 -0.45399 0
    outer loop
      vertex 4.46287 16.1168 0
      vertex 4.19299 15.5871 2.5
      vertex 4.19299 15.5871 0
    endloop
  endfacet
  facet normal 0.987688 -0.156435 0
    outer loop
      vertex 4.1 15 2.5
      vertex 4.19299 15.5871 0
      vertex 4.19299 15.5871 2.5
    endloop
  endfacet
  facet normal 0.987688 -0.156435 0
    outer loop
      vertex 4.19299 15.5871 0
      vertex 4.1 15 2.5
      vertex 4.1 15 0
    endloop
  endfacet
  facet normal 0.987688 0.156435 0
    outer loop
      vertex 4.19299 14.4129 2.5
      vertex 4.1 15 0
      vertex 4.1 15 2.5
    endloop
  endfacet
  facet normal 0.987688 0.156435 0
    outer loop
      vertex 4.1 15 0
      vertex 4.19299 14.4129 2.5
      vertex 4.19299 14.4129 0
    endloop
  endfacet
  facet normal -0.987688 0.156435 0
    outer loop
      vertex 7.80701 14.4129 0
      vertex 7.9 15 2.5
      vertex 7.9 15 0
    endloop
  endfacet
  facet normal -0.987688 0.156435 0
    outer loop
      vertex 7.9 15 2.5
      vertex 7.80701 14.4129 0
      vertex 7.80701 14.4129 2.5
    endloop
  endfacet
  facet normal -0.707107 0.707107 0
    outer loop
      vertex 7.11679 13.4629 0
      vertex 7.53713 13.8832 2.5
      vertex 7.53713 13.8832 0
    endloop
  endfacet
  facet normal -0.707107 0.707107 0
    outer loop
      vertex 7.53713 13.8832 2.5
      vertex 7.11679 13.4629 0
      vertex 7.11679 13.4629 2.5
    endloop
  endfacet
  facet normal -0.891007 0.453989 0
    outer loop
      vertex 7.53713 13.8832 0
      vertex 7.80701 14.4129 2.5
      vertex 7.80701 14.4129 0
    endloop
  endfacet
  facet normal -0.891007 0.453989 0
    outer loop
      vertex 7.80701 14.4129 2.5
      vertex 7.53713 13.8832 0
      vertex 7.53713 13.8832 2.5
    endloop
  endfacet
  facet normal 0.707107 0.707107 0
    outer loop
      vertex 4.88321 13.4629 2.5
      vertex 4.46287 13.8832 0
      vertex 4.46287 13.8832 2.5
    endloop
  endfacet
  facet normal 0.707107 0.707107 0
    outer loop
      vertex 4.46287 13.8832 0
      vertex 4.88321 13.4629 2.5
      vertex 4.88321 13.4629 0
    endloop
  endfacet
  facet normal 0.891007 0.453989 0
    outer loop
      vertex 4.46287 13.8832 2.5
      vertex 4.19299 14.4129 0
      vertex 4.19299 14.4129 2.5
    endloop
  endfacet
  facet normal 0.891007 0.453989 0
    outer loop
      vertex 4.19299 14.4129 0
      vertex 4.46287 13.8832 2.5
      vertex 4.46287 13.8832 0
    endloop
  endfacet
  facet normal 0.156435 0.987688 -0
    outer loop
      vertex 6 13.1 0
      vertex 5.41287 13.193 2.5
      vertex 6 13.1 2.5
    endloop
  endfacet
  facet normal 0.156435 0.987688 0
    outer loop
      vertex 5.41287 13.193 2.5
      vertex 6 13.1 0
      vertex 5.41287 13.193 0
    endloop
  endfacet
  facet normal 0.453989 0.891007 -0
    outer loop
      vertex 5.41287 13.193 0
      vertex 4.88321 13.4629 2.5
      vertex 5.41287 13.193 2.5
    endloop
  endfacet
  facet normal 0.453989 0.891007 0
    outer loop
      vertex 4.88321 13.4629 2.5
      vertex 5.41287 13.193 0
      vertex 4.88321 13.4629 0
    endloop
  endfacet
endsolid OpenSCAD_Model
